…
Question 4: Are there differences in activity patterns between weekdays and weekends?
-------------------------------------------------------------------------------------

The task is divided into 2 different steps:

### Create a new factor variable in the dataset with two levels – “weekday” and “weekend”

    activity_without_nan$days <- weekdays(activity_without_nan$date)
    activity_without_nan$week <- ""
    activity_without_nan[activity_without_nan$days == "Samstag" | activity_without_nan$days == "Sonntag", ]$week <- "weekend"
    activity_without_nan[!(activity_without_nan$days == "Samstag" | activity_without_nan$days == "Sonntag"), ]$week <- "weekday"
    activity_without_nan <- (activity_without_nan) %>% select(steps, date, interval,days,week) %>% group_by(week, interval) %>% summarise(mean_steps = mean(steps))
    print(activity_without_nan)

    ## # A tibble: 576 x 3
    ## # Groups:   week [2]
    ##    week    interval mean_steps
    ##    <chr>      <int>      <dbl>
    ##  1 weekday        0       7.01
    ##  2 weekday        5       5.38
    ##  3 weekday       10       5.14
    ##  4 weekday       15       5.16
    ##  5 weekday       20       5.07
    ##  6 weekday       25       6.30
    ##  7 weekday       30       5.61
    ##  8 weekday       35       6.01
    ##  9 weekday       40       4.98
    ## 10 weekday       45       6.58
    ## # ... with 566 more rows
…
